125
 0 -20 -47 0
 1 -23 -49 3
 2 -20 -40 3
 3 -29 -51 25
 4 -20 -42 9
 5 -22 -46 7
 6 -24 -47 42
 7 -20 -43 80
 8 -18 -43 6
 9 -21 -43 9
 10 -20 -44 9
 11 -27 -54 8
 12 -16 -49 25
 13 -22 -52 4
 14 -19 -44 60
 15 -24 -51 3
 16 -20 -48 4
 17 -23 -48 12
 18 -22 -49 28
 19 -24 -54 3
 20 -26 -53 10
 21 -21 -42 7
 22 -21 -51 38
 23 -18 -48 80
 24 -16 -50 3
 25 -15 -49 48
 26 -30 -52 12
 27 -25 -52 6
 28 -23 -46 5
 29 -22 -51 25
 30 -23 -51 12
 31 -23 -42 38
 32 -23 -52 4
 33 -22 -48 12
 34 -21 -45 12
 35 -27 -50 3
 36 -12 -39 21
 37 -12 -44 8
 38 -13 -49 1
 39 -26 -50 8
 40 -23 -50 9
 41 -22 -44 6
 42 -22 -45 10
 43 -21 -50 27
 44 -15 -42 17
 45 -28 -49 5
 46 -28 -54 12
 47 -19 -43 16
 48 -14 -41 8
 49 -20 -41 80
 50 -29 -49 13
 51 -14 -42 14
 52 -21 -44 4
 53 -24 -46 37
 54 -19 -41 4
 55 -24 -49 53
 56 -16 -40 54
 57 -23 -45 43
 58 -12 -38 21
 59 -27 -49 10
 60 -22 -43 95
 61 -25 -49 18
 62 -21 -47 30
 63 -20 -46 20
 64 -12 -42 31
 65 -19 -42 12
 66 -21 -49 12
 67 -8 -49 3
 68 -22 -41 21
 69 -16 -53 6
 70 -29 -53 1
 71 -20 -51 4
 72 -13 -38 90
 73 -13 -39 6
 74 -11 -41 11
 75 -27 -52 30
 76 -9 -38 74
 77 -29 -54 2
 78 -26 -49 28
 79 -26 -52 4
 80 -14 -40 2
 81 -25 -48 13
 82 -15 -41 14
 83 -8 -50 16
 84 -20 -45 11
 85 -18 -42 12
 86 -24 -52 14
 87 -14 -46 3
 88 -23 -47 19
 89 -18 -51 9
 90 -25 -51 9
 91 -22 -50 4
 92 -23 -54 7
 93 -16 -58 82
 94 -16 -44 1
 95 -21 -48 11
 96 -15 -40 3
 97 -19 -50 98
 98 -11 -45 23
 99 -21 -41 60
 100 -29 -50 11
 101 -22 -42 9
 102 -13 -40 19
 103 -11 -48 1
 104 -10 -40 28
 105 -29 -52 8
 106 -30 -50 11
 107 -11 -42 9
 108 -27 -51 2
 109 -23 -53 14
 110 -18 -50 9
 111 -12 -45 17
 112 -30 -51 11
 113 -13 -43 30
 114 -28 -52 2
 115 -23 -44 63
 116 -17 -41 16
 117 -22 -47 65
 118 -15 -43 37
 119 -27 -53 1
 120 -20 -50 2
 121 -15 -39 33
 122 -11 -40 25
 123 -12 -41 15
 124 -13 -42 8
 125 -19 -52 13
//satellites 
4
 0 -20 -49 0
 0 -21 -40 0
 0 -26 -51 0
 0 -12 -40 0
 
//First-level Vehicles characteristics: type, volume, fixed cost, variable cost, number available
5     
v 1 240 0 1.6 2
v 2 360 0 1.2 1
v 3 480 0 1.1 1
v 4 600 0 1.0 1
v 5 840 0 0.8 1

//Second-level Vehicles characteristics: type, volume, fixed cost, variable cost, number available
5
v 1 108 0 0.3 4 
v 2 148 0 0.5 4 
v 3 200 0 0.6 2 
v 4 268 0 0.7 2 
v 5 340 0 0.8 2