125
 0 -20 -47 0
 1 -24 -51 24
 2 -27 -50 22
 3 -24 -53 12
 4 -28 -54 4
 5 -23 -46 12
 6 -12 -46 90
 7 -20 -42 27
 8 -19 -40 8
 9 -21 -51 7
 10 -18 -47 10
 11 -19 -43 5
 12 -12 -42 24
 13 -20 -50 6
 14 -12 -45 8
 15 -15 -56 15
 16 -28 -52 10
 17 -12 -50 5
 18 -22 -45 24
 19 -19 -47 15
 20 -13 -39 3
 21 -21 -52 96
 22 -13 -42 5
 23 -20 -44 26
 24 -23 -49 39
 25 -16 -54 21
 26 -21 -45 12
 27 -23 -50 27
 28 -28 -49 53
 29 -21 -42 20
 30 -20 -43 28
 31 -25 -49 2
 32 -15 -57 5
 33 -22 -54 13
 34 -22 -43 3
 35 -17 -49 1
 36 -12 -39 90
 37 -11 -39 27
 38 -19 -46 3
 39 -20 -41 20
 40 -19 -42 10
 41 -30 -50 9
 42 -26 -49 24
 43 -27 -53 6
 44 -14 -43 15
 45 -21 -50 2
 46 -29 -52 3
 47 -23 -48 21
 48 -16 -41 15
 49 -22 -55 15
 50 -22 -52 4
 51 -22 -50 2
 52 -22 -42 5
 53 -16 -49 1
 54 -24 -47 37
 55 -23 -52 12
 56 -20 -52 19
 57 -15 -39 4
 58 -23 -53 16
 59 -21 -44 5
 60 -22 -47 22
 61 -22 -48 23
 62 -21 -49 13
 63 -23 -51 19
 64 -24 -54 27
 65 -7 -51 20
 66 -20 -40 70
 67 -20 -51 56
 68 -22 -46 55
 69 -26 -50 20
 70 -16 -57 37
 71 -16 -45 6
 72 -17 -43 20
 73 -27 -52 2
 74 -17 -46 17
 75 -26 -54 12
 76 -25 -52 9
 77 -15 -50 1
 78 -20 -49 5
 79 -14 -40 56
 80 -13 -41 5
 81 -24 -46 21
 82 -18 -48 4
 83 -13 -49 96
 84 -26 -51 4
 85 -10 -40 1
 86 -20 -55 14
 87 -11 -40 7
 88 -27 -49 6
 89 -18 -43 6
 90 -13 -44 23
 91 -25 -53 13
 92 -23 -43 50
 93 -18 -40 4
 94 -29 -49 16
 95 -19 -48 7
 96 -23 -47 22
 97 -21 -56 5
 98 -21 -48 34
 99 -26 -52 1
 100 -19 -51 20
 101 -21 -41 90
 102 -20 -46 3
 103 -17 -42 31
 104 -21 -46 4
 105 -22 -49 5
 106 -28 -50 20
 107 -16 -58 52
 108 -16 -50 1
 109 -22 -51 5
 110 -16 -43 6
 111 -26 -53 7
 112 -10 -38 3
 113 -6 -49 3
 114 -18 -51 27
 115 -12 -44 1
 116 -11 -38 13
 117 -14 -41 23
 118 -24 -50 10
 119 -25 -54 4
 120 -20 -45 8
 121 -19 -50 10
 122 -24 -45 35
 123 -24 -52 11
 124 -12 -49 65
 125 -15 -43 37
//satellites 
4
 0 -14 -51 0
 0 -25 -51 0
 0 -13 -40 0
 0 -21 -43 0
 
//First-level Vehicles characteristics: type, volume, fixed cost, variable cost, number available
5     
v 1 240 0 1.6 1
v 2 360 0 1.2 1
v 3 480 0 1.1 1
v 4 600 0 1.0 1
v 5 840 0 0.8 1

//Second-level Vehicles characteristics: type, volume, fixed cost, variable cost, number available
5
v 1 108 0 0.3 3 
v 2 148 0 0.5 3 
v 3 200 0 0.6 3 
v 4 268 0 0.7 2 
v 5 340 0 0.8 2